<?xml version="1.0" encoding="utf-8"?>
<!-- Generator: Adobe Illustrator 19.0.0, SVG Export Plug-In . SVG Version: 6.00 Build 0)  -->
<svg version="1.1" id="Слой_1" xmlns="http://www.w3.org/2000/svg" xmlns:xlink="http://www.w3.org/1999/xlink" x="0px" y="0px"
	 viewBox="-304.3 196.2 240.4 204.7" style="enable-background:new -304.3 196.2 240.4 204.7;" xml:space="preserve">
<style type="text/css">
	.st0{fill:#56698F;}
	.st1{fill:#17294D;stroke:#17294D;stroke-width:0.22;stroke-miterlimit:22.93;}
	.st2{fill:#17294D;}
	.st3{fill:#8F9EBB;}
	.st4{fill:#F08143;}
	.st5{fill:#17294D;stroke:#17294D;stroke-width:1.42;stroke-miterlimit:22.93;}
</style>
<title>Лого Кравт Инвест</title>
<path class="st0" d="M-212,339.2l3.6,0.4c0.9,0.1,1.6-0.9,1.6-2.1v-11.2c0-1.3-0.5-2.3-1.2-2.3l-3.2,0.1l-10.8,0.3l-4,0.1h-0.4
	c-1.2,0.1-2.1,1.2-2,2.4v8.5c0,1.3,0.7,2.4,1.6,2.5l3.6,0.4L-212,339.2z"/>
<path class="st0" d="M-190.6,341.3l4,0.4h0.2c1.1,0,2-0.8,2-1.9c0-0.1,0-0.2,0-0.2v-14.1c0-1.3-0.6-2.3-1.3-2.3l-3.3,0.1l-3.4,0.1
	l-4,0.1l-7.4,0.2c-1.2,0.1-2.1,1.2-2,2.4v11.3c0,1.2,0.8,2.3,2,2.5h0.2l4,0.4L-190.6,341.3L-190.6,341.3z"/>
<polygon class="st1" points="-66.1,333 -185.5,339.5 -302,331.1 -184.9,343.3 -66.1,333 "/>
<path class="st2" d="M-152.4,231.9c0,1.3-0.2,2.2-0.4,2.1l-2.2-1.2l-7.9-4.2c-1.1-0.7-1.8-2-1.8-3.3v-13.9c0-1.3,0.8-1.8,1.8-1.2
	l8.8,5.8c1.1,0.8,1.7,2.1,1.8,3.5L-152.4,231.9L-152.4,231.9z"/>
<path class="st2" d="M-183.3,222.6c0-1.3,0.8-1.9,1.8-1.3l12.8,6.8c1.1,0.7,1.8,2,1.8,3.3v25.2c0,1.3-0.9,2-1.9,1.6l-12.5-4.8
	c-1.1-0.6-1.9-1.7-1.9-3L-183.3,222.6L-183.3,222.6z"/>
<path class="st2" d="M-183.2,257.4c0-1.3,0.9-2,1.9-1.6l12.5,4.8c1.1,0.6,1.9,1.7,1.9,3v28.3c0.1,1-0.6,1.8-1.5,1.9
	c-0.2,0-0.3,0-0.5,0l-12.2-2.3c-1.2-0.3-2-1.4-2-2.7L-183.2,257.4L-183.2,257.4z"/>
<path class="st2" d="M-152.2,294.7c0,1.3-0.3,2.2-0.6,2.2l-2.6-0.5l-7.4-1.4c-1.2-0.3-2-1.4-2-2.7v-27.9c0-1.3,0.9-2,1.9-1.6l7,2.7
	l2.7,1c0.4,0.2,0.8,1.3,0.8,2.6L-152.2,294.7L-152.2,294.7z"/>
<path class="st2" d="M-183.1,295.9c-0.1-1,0.6-1.8,1.5-1.9c0.2,0,0.3,0,0.5,0l12.2,2.3c1.2,0.3,2,1.4,2,2.7v20
	c0.1,1.2-0.8,2.2-2,2.2c0,0,0,0,0,0l-8.7-0.3l-3.7-0.1c-0.9,0-1.7-1.1-1.7-2.4L-183.1,295.9L-183.1,295.9z"/>
<path class="st2" d="M-152.1,319.5c0.1,1.1-0.8,2.1-1.9,2.2c0,0-0.1,0-0.1,0l-8.6-0.3c-1.2-0.1-2.1-1.2-2-2.4v-19.7
	c-0.1-1,0.6-1.8,1.5-1.9c0.2,0,0.3,0,0.5,0l7,1.3l2.8,0.5c0.4,0.1,0.8,1.2,0.8,2.4L-152.1,319.5L-152.1,319.5z"/>
<path class="st3" d="M-184.7,217.2l0.2-0.1c0,0,0-1,0-2.3v-16c0-1.3-0.8-1.7-1.7-1l-18.4,14.6c-1,0.9-1.6,2.2-1.7,3.6v11.3
	c0,1.3,0.8,1.8,1.8,1.3l17.6-10.2L-184.7,217.2L-184.7,217.2z"/>
<path class="st3" d="M-184.5,290.9L-184.5,290.9c0.1,0,0.1-1,0.1-2.3v-31.8c0-1.3-0.8-1.9-1.9-1.5l-17.8,7.4
	c-1.2,0.6-1.9,1.8-1.9,3.1l0.1,27.2c-0.1,0.9,0.6,1.8,1.5,1.9c0.2,0,0.3,0,0.5,0l17.3-3.6L-184.5,290.9L-184.5,290.9z"/>
<path class="st3" d="M-189.1,321l2.9-0.1h1.3c0.2,0,0.4-1,0.4-2.3v-22.9c0.1-0.9-0.6-1.8-1.5-1.9c-0.2,0-0.3,0-0.5,0l-17.4,3.5
	c-1.2,0.3-2,1.5-2,2.7l0.1,19.3c-0.1,1.2,0.8,2.2,2,2.2c0,0,0,0,0,0l7.3-0.3l4-0.1L-189.1,321L-189.1,321z"/>
<path class="st3" d="M-222.2,268l3.8-1.6l3.3-1.4l3.8-1.6l2.6-1.1c1.1-0.6,1.9-1.8,1.9-3.1v-6.9c0-1.3-0.8-1.9-1.8-1.4l-18.1,9.3
	c-1.1,0.7-1.8,1.9-1.8,3.2v5c0,1.3,0.3,2.2,0.6,2l2.5-1L-222.2,268L-222.2,268z"/>
<path class="st0" d="M-211.3,321.8l3.2-0.1c0.7,0,1.2-1.1,1.2-2.4v-19.1c0-1.3-0.9-2.1-1.9-1.9l-5.9,1.2l-3.1,0.6l-4,0.8l-3.1,0.6
	l-2.8,0.5c-0.4,0.1-0.8,1.2-0.8,2.5l0.1,15.7c-0.1,1.2,0.8,2.1,2,2.2c0,0,0,0,0,0h0.4l4-0.2L-211.3,321.8L-211.3,321.8z"/>
<path class="st2" d="M-115.8,308.2c0-1.2-0.8-2.3-2-2.7l-5.1-0.9l-11.6-2.1c-1-0.1-1.9,0.5-2,1.5c0,0.1,0,0.3,0,0.4v15.6
	c-0.1,1.2,0.8,2.2,2,2.4l14.1,0.5l2.4,0.1c1.2,0,2-1,2-2.2c0,0,0,0,0,0L-115.8,308.2L-115.8,308.2z"/>
<path class="st2" d="M-115.7,283.1c0-1.3-0.8-2.4-1.9-3l-3.5-1.3l-3.8-1.4l-3.9-1.5l-3.8-1.5l-1.9-0.7c-1.1-0.4-1.9,0.3-1.9,1.6
	v22.5c0,1.2,0.8,2.3,2,2.7l11.9,2.3l4.8,1c0.9,0.1,1.8-0.5,2-1.4c0-0.2,0-0.3,0-0.5L-115.7,283.1L-115.7,283.1z"/>
<path class="st2" d="M-90.1,324.3c0.7,0,1.2-1,1.2-2.2V315c0-1.2-0.8-2.3-2-2.7l-10-1.8c-1-0.1-1.9,0.5-2,1.5c0,0.2,0,0.3,0,0.5v8.9
	c-0.1,1.2,0.8,2.2,2,2.4l10,0.4h0.6L-90.1,324.3z"/>
<path class="st0" d="M-231.6,244.4c1.1-0.8,1.8-2,1.8-3.4v-12.8c0-1.3-0.8-1.8-1.7-1.1l-7.7,5.5c-1,0.9-1.7,2.2-1.7,3.5v11.4
	c0,1.3,0.8,1.8,1.8,1.2l2.8-1.6l3.6-2.1L-231.6,244.4z"/>
<path class="st0" d="M-231.6,272c1.1-0.6,1.9-1.8,1.9-3.1V248c0-1.3-0.8-1.8-1.8-1.3l-0.4,0.2l-3.6,2.1l-3.5,2
	c-1.1,0.8-1.8,2-1.8,3.3v19.4c0,1.3,0.9,1.9,1.9,1.5l2.6-1.1l3.8-1.6L-231.6,272L-231.6,272z"/>
<path class="st4" d="M-231.7,300.8c1.2-0.4,2-1.5,2-2.7v-22.4c0-1.3-0.9-2-1.9-1.5l-0.3,0.1l-3.8,1.6l-3.2,1.3
	c-1.1,0.6-1.9,1.8-1.9,3.1v20.1c0,1.3,0.9,2.1,2,1.9l2.6-0.5l4-0.8L-231.7,300.8L-231.7,300.8z"/>
<path class="st2" d="M-233.5,322.7l2.9-0.1c0.5,0,0.9-1.1,0.9-2.3v-15.5c0.1-0.9-0.6-1.8-1.5-1.9c-0.2,0-0.3,0-0.5,0l-0.3,0.1
	l-4,0.8l-2.8,0.5c-1.2,0.3-2,1.4-2,2.7v13.8c0,1.3,0.3,2.3,0.6,2.3l3.3-0.1L-233.5,322.7L-233.5,322.7z"/>
<path class="st2" d="M-104.9,334.4c0.4,0,0.8-1.1,0.8-2.4v-4.5c0.1-1.2-0.8-2.2-2-2.3l-6.5-0.1c-1.2,0.1-2.1,1.1-2,2.3c0,0,0,0,0,0
	v5.8c0,1.3,0.4,2.3,0.8,2.2l2.8-0.3l3.4-0.3L-104.9,334.4L-104.9,334.4z"/>
<path class="st2" d="M-112.7,281.9c-1.1-0.4-1.9,0.3-1.9,1.6v18.5c0,1.2,0.8,2.4,2,2.7l6.6,1.3c0.9,0.2,1.8-0.5,2-1.4
	c0-0.2,0-0.3,0-0.5v-16.6c0-1.3-0.8-2.5-2-3.1L-112.7,281.9L-112.7,281.9z"/>
<path class="st2" d="M-112.8,257.4c-1-0.5-1.8,0.1-1.8,1.4v18.3c0,1.3,0.7,2.5,1.9,3.1l6.8,2.7c1,0.4,1.9-0.3,1.9-1.6v-17
	c0-1.3-0.7-2.5-1.8-3.3L-112.8,257.4z"/>
<path class="st2" d="M-112.9,230.6c-0.9-0.7-1.7-0.2-1.7,1v20.6c0,1.3,0.7,2.6,1.8,3.3l7,3.8c1,0.5,1.8,0,1.8-1.3v-18.4
	c0-1.4-0.7-2.7-1.7-3.6L-112.9,230.6L-112.9,230.6z"/>
<path class="st2" d="M-139.8,337.8c0.9-0.1,1.6-1.2,1.6-2.5v-8.6c0.1-1.2-0.8-2.2-2-2.4l-8.1-0.2c-1.2,0.1-2.1,1-2,2.2c0,0,0,0,0,0
	v10.1c0,1.3,0.7,2.2,1.6,2.1l3.6-0.4l1.8-0.2L-139.8,337.8L-139.8,337.8z"/>
<path class="st2" d="M-138.2,304.2c0-1.3,0-2.3,0-2.3l-2.1-0.4l-8-1.5c-1-0.1-1.9,0.5-2,1.5c0,0.1,0,0.3,0,0.4v17.6
	c-0.1,1.2,0.8,2.2,2,2.4l8.1,0.3c1.2,0,2.1-1,2-2.2c0,0,0,0,0-0.1L-138.2,304.2L-138.2,304.2z"/>
<path class="st2" d="M-138.2,274.6c0-0.8,0-1.6-0.1-2.4l-2.1-0.8l-8-3.1c-1.1-0.4-1.9,0.3-1.9,1.6v25.1c0,1.2,0.8,2.4,2,2.7l8.1,1.6
	c0.9,0.2,1.8-0.5,2-1.4c0-0.2,0-0.3,0-0.5L-138.2,274.6L-138.2,274.6z"/>
<path class="st2" d="M-138.1,246.5c0.1-0.8,0-1.6-0.2-2.4l-2.1-1.1l-8.1-4.2c-1-0.5-1.8,0.1-1.8,1.3V263c0,1.3,0.8,2.5,1.9,3.1
	l8.3,3.3c1,0.4,1.9-0.3,1.9-1.6L-138.1,246.5L-138.1,246.5z"/>
<polygon class="st2" points="-229.8,338 -231.8,337.8 -229.8,338 "/>
<path class="st2" d="M-104,237.3l-10.6-8L-104,237.3z"/>
<path class="st5" d="M-285.2,364.5v-10.7h-2.9v21.9h2.9v-7.6l3.5-3.4l7.7,11h3.8l-9.4-13.1l9.1-8.8h-4.1L-285.2,364.5z
	 M-258.7,353.8h-8.7v21.9h3v-9.4h6.7c0.9,0,1.8,0.1,2.7,0.4c1,0.6,1.6,1.7,1.6,2.9l0.2,3.6c0,0.6,0.1,1.2,0.2,1.7
	c0,0.3,0.1,0.5,0.2,0.7h3.7v-0.5c-0.5-0.2-0.9-0.8-1-1.3c-0.1-0.6-0.2-1.2-0.2-1.9l-0.1-2.9c0-1-0.2-1.9-0.7-2.8
	c-0.5-0.6-1.2-1.1-2-1.4c0.9-0.5,1.7-1.1,2.3-2c0.6-1,0.8-2.1,0.8-3.2c0-2.5-1-4.2-3.1-5.2c-1.3-0.5-2.7-0.8-4.1-0.7L-258.7,353.8z
	 M-264.4,363.8v-7.5h7.2c0.8,0,1.7,0.1,2.4,0.5c1.2,0.6,1.9,1.9,1.7,3.2c0.1,1.1-0.3,2.3-1.2,3c-1,0.6-2,0.9-3.2,0.8L-264.4,363.8z
	 M-228,375.7l-7.9-21.9h-3.4l-8.2,21.9h3l2.4-6.6h8.7l2.2,6.6L-228,375.7z M-241.3,366.7l3.5-9.7l3.3,9.7H-241.3z M-215.7,353.8
	l-6.2,18.6l-6.3-18.6h-3.3l8,21.9h3.1l8-21.9H-215.7z M-201,356.4h7.4v-2.6h-17.8v2.6h7.4v19.3h3V356.4z M-179.9,375.7v-21.9h-3
	v21.9H-179.9z M-160.5,371.6l-11-17.7h-3.5v21.9h2.8V358l11.2,17.7h3.3v-21.9h-2.8L-160.5,371.6L-160.5,371.6z M-138.8,353.8
	l-6.2,18.6l-6.3-18.6h-3.3l8,21.9h3.1l8-21.9L-138.8,353.8z M-116.4,356.5v-2.7h-16v21.9h16.2v-2.6h-13.3v-7.5h12.1v-2.5h-12.1v-6.6
	L-116.4,356.5z M-110.3,368.7h-2.8c-0.1,2.1,0.7,4.2,2.3,5.6c1.8,1.5,4.1,2.2,6.4,2.1c2.2,0,4.3-0.5,6.2-1.6
	c1.8-1.1,2.8-3.1,2.6-5.2c0.1-1.7-0.7-3.4-2.1-4.5c-1.1-0.7-2.2-1.1-3.4-1.4l-3.1-0.7c-1.4-0.3-2.7-0.7-4-1.2
	c-0.9-0.5-1.4-1.4-1.3-2.4c0-1,0.4-1.9,1.1-2.6c1.1-0.8,2.4-1.2,3.8-1.1c2.1,0,3.7,0.5,4.6,1.7c0.6,0.8,0.9,1.7,0.9,2.7h2.8
	c0-2.4-0.8-4.2-2.4-5.3c-1.7-1.1-3.8-1.7-5.9-1.6c-2.1-0.1-4.2,0.5-5.8,1.9c-1.3,1.2-2.1,3-2,4.8c-0.1,1.7,0.7,3.2,2.1,4.1
	c1.3,0.7,2.7,1.2,4.1,1.4l3,0.7c1.2,0.2,2.4,0.7,3.5,1.3c0.8,0.6,1.2,1.6,1.1,2.6c0,1.6-0.9,2.7-2.6,3.3c-1,0.3-2,0.5-3,0.5
	c-2.5,0-4.2-0.7-5.2-2.2C-109.9,370.8-110.2,369.7-110.3,368.7L-110.3,368.7z M-83.3,356.4h7.3v-2.6h-17.8v2.6h7.4v19.3h3
	L-83.3,356.4L-83.3,356.4z"/>
<polygon class="st1" points="-66.1,397.3 -185.5,390.8 -302,399.2 -184.9,387 -66.1,397.3 "/>
<path class="st2" d="M-258.8,287.6c0-1.3-0.9-2-1.9-1.5l-5.7,2.3c-1.2,0.6-1.9,1.8-1.9,3.1v14.9c0,1.3,0.9,2.1,2,1.9l5.5-1.2
	c1.2-0.4,2-1.5,2-2.7L-258.8,287.6L-258.8,287.6z"/>
<path class="st2" d="M-258.8,310.3c0.1-1-0.6-1.8-1.5-1.9c-0.2,0-0.3,0-0.5,0l-5.5,1c-1.2,0.3-2,1.4-2,2.7v9.8
	c-0.1,1.1,0.8,2.1,1.9,2.2c0,0,0.1,0,0.1,0l5.4-0.3c1.2-0.2,2.1-1.2,2-2.4L-258.8,310.3L-258.8,310.3z"/>
<path class="st2" d="M-261.8,334.4l2.5,0.2c0.3,0,0.5-1,0.5-2.2v-4.8c0.1-1.2-0.8-2.2-2-2.3c0,0,0,0,0,0l-5.4,0.1
	c-1.2,0.1-2.1,1.2-2,2.3v3.7c0,1.3,0.2,2.3,0.5,2.4l2.5,0.2L-261.8,334.4L-261.8,334.4z"/>
<path class="st2" d="M-269,312.3c0.1-1-0.6-1.8-1.5-1.9c-0.2,0-0.3,0-0.5,0l-4.2,0.8c-1.2,0.3-2,1.4-2,2.7v8.6
	c-0.1,1.1,0.8,2.1,1.9,2.2c0,0,0.1,0,0.1,0l4.1-0.2c1.2-0.2,2.1-1.2,2-2.4v-9.7H-269z"/>
<path class="st2" d="M-271.8,333.4l2.4,0.2c0.2,0,0.4-1,0.4-2.3v-3.6c0.1-1.2-0.8-2.2-1.9-2.3c0,0-0.1,0-0.1,0l-4.1,0.1
	c-1.2,0.1-2.1,1.1-2,2.3v2.7c0,1.3,0.2,2.3,0.4,2.4l2.4,0.2L-271.8,333.4L-271.8,333.4z"/>
<path class="st0" d="M-244,279.2c1-0.4,1.9,0.3,1.9,1.5v19.9c0,1.3-0.8,2.4-2,2.7l-5,1c-1.1,0.2-2-0.6-2-1.9v-18.1
	c0-1.3,0.7-2.5,1.9-3.1L-244,279.2z"/>
<path class="st2" d="M-257.8,327.5c-0.1-1.2,0.7-2.2,1.9-2.3c1,0,3.8,1,3.8,2.2v5.6c0.1,1.1-0.7,2-1.8,2.1c-0.1,0-0.2,0-0.2,0l0,0
	l-2.8-0.3c-0.4,0-0.8-1.1-0.8-2.4L-257.8,327.5L-257.8,327.5z"/>
<path class="st2" d="M-244.1,324.9c1.2,0.1,2.1,1.1,2,2.2c0,0,0,0,0,0v6.8c0,1.3-0.4,2.3-0.8,2.2l-2.8-0.3l-3.4-0.3
	c-1.2-0.2-2-1.3-2-2.5v-5.7c-0.1-1.2,0.8-2.2,2-2.4L-244.1,324.9L-244.1,324.9z"/>
<polygon class="st2" points="-276.3,333.5 -277.1,333.4 -276.3,333.5 "/>
<polygon class="st2" points="-269,334.2 -269.8,334.1 -269,334.2 "/>
<polygon class="st2" points="-267.2,334.4 -268.2,334.3 -267.2,334.4 "/>
<polygon class="st2" points="-258.8,335.2 -259.8,335.1 -258.8,335.2 "/>
<polygon class="st2" points="-256.2,335.4 -257.8,335.3 -256.2,335.4 "/>
<polygon class="st2" points="-242.1,336.8 -243.7,336.7 -242.1,336.8 "/>
<polygon class="st2" points="-277.1,325.6 -277.1,324.7 -277.1,325.6 "/>
<path class="st2" d="M-275.2,311.1C-276.3,311.3-276.3,311.3-275.2,311.1l5.6-1h0.2l-1.6,0.2L-275.2,311.1L-275.2,311.1z"/>
</svg>
