-r compiled.txt
-r wm.txt

Django==1.9.13
django-appconf==1.0.2
django-classy-tags==0.8.0
django-cms==3.4.4
django-compressor==2.2
django-filer==1.2.8
django-formtools==2.0
django-mptt==0.8.7
django-polymorphic==1.0.2
django-sekizai==0.10.0
django-treebeard==4.1.2
django-webpack-loader==0.5.0
djangocms-admin-style==1.2.7
djangocms-attributes-field==0.3.0
djangocms-column==1.7.0
djangocms-file==2.0.2
djangocms-googlemap==1.1.1
djangocms-link==2.1.2
djangocms-picture==2.0.5
djangocms-snippet==1.9.2
djangocms-style==2.0.2
djangocms_text_ckeditor==3.5.0
easy-thumbnails==2.3
html5lib==0.9999999
olefile==0.44
Pillow==4.2.1
pypugjs==4.2.2
pytz==2017.2
rcssmin==1.0.6
rjsmin==1.0.12
six==1.10.0
Unidecode==0.4.21
flake8==3.4.1
django-image-cropping==1.0.4
djangocms-ckeditor-filer==0.2.2
pyyaml==3.12
ua-parser==0.7.3
user-agents==1.1.0
django-user-agents==0.3.0
python-memcached==1.57
django-colorfield==0.1.14
